//Maya ASCII 2018 scene
//Name: cube.ma
//Last modified: Wed, May 27, 2020 10:11:19 PM
//Codeset: 1252
requires maya "2018";
requires "stereoCamera" "10.0";
currentUnit -l centimeter -a degree -t film;
fileInfo "application" "maya";
fileInfo "product" "Maya 2018";
fileInfo "version" "2018";
fileInfo "cutIdentifier" "201706261615-f9658c4cfc";
fileInfo "osv" "Microsoft Windows 8 Home Premium Edition, 64-bit  (Build 9200)\n";
createNode transform -s -n "persp";
	rename -uid "BEEA23A4-46C4-71B0-1E25-76BA69848615";
	setAttr ".v" no;
	setAttr ".t" -type "double3" 28 21 28 ;
	setAttr ".r" -type "double3" -27.938352729602379 44.999999999999972 -5.172681101354183e-14 ;
createNode camera -s -n "perspShape" -p "persp";
	rename -uid "34B10A20-4CC9-2B54-AD80-85875B9E03DE";
	setAttr -k off ".v" no;
	setAttr ".fl" 34.999999999999993;
	setAttr ".coi" 44.82186966202994;
	setAttr ".imn" -type "string" "persp";
	setAttr ".den" -type "string" "persp_depth";
	setAttr ".man" -type "string" "persp_mask";
	setAttr ".hc" -type "string" "viewSet -p %camera";
	setAttr ".ai_translator" -type "string" "perspective";
createNode transform -s -n "top";
	rename -uid "297EACCD-4F22-2909-8C44-639046D8C621";
	setAttr ".v" no;
	setAttr ".t" -type "double3" 0 1000.1 0 ;
	setAttr ".r" -type "double3" -89.999999999999986 0 0 ;
createNode camera -s -n "topShape" -p "top";
	rename -uid "7681C1D8-48A6-A439-11FE-2DA941E7FB6C";
	setAttr -k off ".v" no;
	setAttr ".rnd" no;
	setAttr ".coi" 1000.1;
	setAttr ".ow" 30;
	setAttr ".imn" -type "string" "top";
	setAttr ".den" -type "string" "top_depth";
	setAttr ".man" -type "string" "top_mask";
	setAttr ".hc" -type "string" "viewSet -t %camera";
	setAttr ".o" yes;
	setAttr ".ai_translator" -type "string" "orthographic";
createNode transform -s -n "front";
	rename -uid "833329BC-42FA-F894-8A3E-A79031F32A07";
	setAttr ".v" no;
	setAttr ".t" -type "double3" 0 0 1000.1 ;
createNode camera -s -n "frontShape" -p "front";
	rename -uid "F7B7DD5F-4742-08D7-C001-B0AD9FF3BA89";
	setAttr -k off ".v" no;
	setAttr ".rnd" no;
	setAttr ".coi" 1000.1;
	setAttr ".ow" 30;
	setAttr ".imn" -type "string" "front";
	setAttr ".den" -type "string" "front_depth";
	setAttr ".man" -type "string" "front_mask";
	setAttr ".hc" -type "string" "viewSet -f %camera";
	setAttr ".o" yes;
	setAttr ".ai_translator" -type "string" "orthographic";
createNode transform -s -n "side";
	rename -uid "42A8132C-40CA-C89D-2E60-CBB525F45E85";
	setAttr ".v" no;
	setAttr ".t" -type "double3" 1000.1 0 0 ;
	setAttr ".r" -type "double3" 0 89.999999999999986 0 ;
createNode camera -s -n "sideShape" -p "side";
	rename -uid "165DAF9C-4D90-4A8D-02AD-68B96A9F3485";
	setAttr -k off ".v" no;
	setAttr ".rnd" no;
	setAttr ".coi" 1000.1;
	setAttr ".ow" 30;
	setAttr ".imn" -type "string" "side";
	setAttr ".den" -type "string" "side_depth";
	setAttr ".man" -type "string" "side_mask";
	setAttr ".hc" -type "string" "viewSet -s %camera";
	setAttr ".o" yes;
	setAttr ".ai_translator" -type "string" "orthographic";
createNode transform -n "root";
	rename -uid "57BEB48A-4C24-8BE8-3145-2398BC850AB5";
createNode transform -n "GEO_AUX_GRP" -p "root";
	rename -uid "45E52243-422F-15D0-2DEF-998DEDF4A09F";
createNode transform -n "pCube_aux" -p "GEO_AUX_GRP";
	rename -uid "A6DE1D5C-4465-3E35-3A9E-EF81DC688CD6";
	setAttr ".s" -type "double3" 2.4286837822071514 0.88290042765615984 2.4286837822071514 ;
createNode mesh -n "pCube_auxShape" -p "pCube_aux";
	rename -uid "795DB574-4629-C2C8-9343-C892A8DFD848";
	setAttr -k off ".v";
	setAttr ".vir" yes;
	setAttr ".vif" yes;
	setAttr ".uvst[0].uvsn" -type "string" "map1";
	setAttr ".cuvs" -type "string" "map1";
	setAttr ".dcc" -type "string" "Ambient+Diffuse";
	setAttr ".covm[0]"  0 1 1;
	setAttr ".cdvm[0]"  0 1 1;
	setAttr ".ai_translator" -type "string" "polymesh";
createNode transform -n "GEO_FINAL_GRP" -p "root";
	rename -uid "04B8BAAA-4ED9-AF02-69D9-CD9422061786";
createNode transform -n "pCube1" -p "GEO_FINAL_GRP";
	rename -uid "2CBDB698-4825-1A64-9136-6C954A71837B";
	setAttr ".s" -type "double3" 0.52214460385384232 3.5526280447754091 0.52214460385384232 ;
createNode mesh -n "pCubeShape1" -p "pCube1";
	rename -uid "223C984E-4080-520A-C635-12B2FBB663C1";
	setAttr -k off ".v";
	setAttr ".vir" yes;
	setAttr ".vif" yes;
	setAttr ".uvst[0].uvsn" -type "string" "map1";
	setAttr -s 14 ".uvst[0].uvsp[0:13]" -type "float2" 0.375 0 0.625 0 0.375
		 0.25 0.625 0.25 0.375 0.5 0.625 0.5 0.375 0.75 0.625 0.75 0.375 1 0.625 1 0.875 0
		 0.875 0.25 0.125 0 0.125 0.25;
	setAttr ".cuvs" -type "string" "map1";
	setAttr ".dcc" -type "string" "Ambient+Diffuse";
	setAttr ".covm[0]"  0 1 1;
	setAttr ".cdvm[0]"  0 1 1;
	setAttr -s 8 ".vt[0:7]"  -0.5 -0.5 0.5 0.5 -0.5 0.5 -0.5 0.5 0.5 0.5 0.5 0.5
		 -0.5 0.5 -0.5 0.5 0.5 -0.5 -0.5 -0.5 -0.5 0.5 -0.5 -0.5;
	setAttr -s 12 ".ed[0:11]"  0 1 0 2 3 0 4 5 0 6 7 0 0 2 0 1 3 0 2 4 0
		 3 5 0 4 6 0 5 7 0 6 0 0 7 1 0;
	setAttr -s 6 -ch 24 ".fc[0:5]" -type "polyFaces" 
		f 4 0 5 -2 -5
		mu 0 4 0 1 3 2
		f 4 1 7 -3 -7
		mu 0 4 2 3 5 4
		f 4 2 9 -4 -9
		mu 0 4 4 5 7 6
		f 4 3 11 -1 -11
		mu 0 4 6 7 9 8
		f 4 -12 -10 -8 -6
		mu 0 4 1 10 11 3
		f 4 10 4 6 8
		mu 0 4 12 0 2 13;
	setAttr ".cd" -type "dataPolyComponent" Index_Data Edge 0 ;
	setAttr ".cvd" -type "dataPolyComponent" Index_Data Vertex 0 ;
	setAttr ".pd[0]" -type "dataPolyComponent" Index_Data UV 0 ;
	setAttr ".hfd" -type "dataPolyComponent" Index_Data Face 0 ;
	setAttr ".ai_translator" -type "string" "polymesh";
createNode lightLinker -s -n "lightLinker1";
	rename -uid "F7DB5F39-4452-6C94-321A-16A10B1BD99B";
	setAttr -s 2 ".lnk";
	setAttr -s 2 ".slnk";
createNode shapeEditorManager -n "shapeEditorManager";
	rename -uid "62E332A9-4E5B-2B00-538D-79958F24EC06";
createNode poseInterpolatorManager -n "poseInterpolatorManager";
	rename -uid "02BFD783-494A-8C62-57BE-EBBA5EC10E2A";
createNode displayLayerManager -n "layerManager";
	rename -uid "C053C74E-4D82-4F1E-AD50-35B420054CBE";
createNode displayLayer -n "defaultLayer";
	rename -uid "7F3236B6-48E5-31AB-D80B-B58DCFC51DD8";
createNode renderLayerManager -n "renderLayerManager";
	rename -uid "EDFA1879-458E-C81D-93F1-168EC7F415CE";
createNode renderLayer -n "defaultRenderLayer";
	rename -uid "F8040F6B-4EDD-1E75-9C30-BB96A962D4FD";
	setAttr ".g" yes;
createNode polyCube -n "polyCube1";
	rename -uid "F081B926-4725-CB53-967C-D48767945F2F";
	setAttr ".cuv" 4;
createNode script -n "uiConfigurationScriptNode";
	rename -uid "630589CD-4A23-2267-C8E6-89B6EAA44D40";
	setAttr ".b" -type "string" (
		"// Maya Mel UI Configuration File.\n//\n//  This script is machine generated.  Edit at your own risk.\n//\n//\n\nglobal string $gMainPane;\nif (`paneLayout -exists $gMainPane`) {\n\n\tglobal int $gUseScenePanelConfig;\n\tint    $useSceneConfig = $gUseScenePanelConfig;\n\tint    $menusOkayInPanels = `optionVar -q allowMenusInPanels`;\tint    $nVisPanes = `paneLayout -q -nvp $gMainPane`;\n\tint    $nPanes = 0;\n\tstring $editorName;\n\tstring $panelName;\n\tstring $itemFilterName;\n\tstring $panelConfig;\n\n\t//\n\t//  get current state of the UI\n\t//\n\tsceneUIReplacement -update $gMainPane;\n\n\t$panelName = `sceneUIReplacement -getNextPanel \"modelPanel\" (localizedPanelLabel(\"Top View\")) `;\n\tif (\"\" != $panelName) {\n\t\t$label = `panel -q -label $panelName`;\n\t\tmodelPanel -edit -l (localizedPanelLabel(\"Top View\")) -mbv $menusOkayInPanels  $panelName;\n\t\t$editorName = $panelName;\n        modelEditor -e \n            -camera \"top\" \n            -useInteractiveMode 0\n            -displayLights \"default\" \n            -displayAppearance \"smoothShaded\" \n            -activeOnly 0\n"
		+ "            -ignorePanZoom 0\n            -wireframeOnShaded 0\n            -headsUpDisplay 1\n            -holdOuts 1\n            -selectionHiliteDisplay 1\n            -useDefaultMaterial 0\n            -bufferMode \"double\" \n            -twoSidedLighting 0\n            -backfaceCulling 0\n            -xray 0\n            -jointXray 0\n            -activeComponentsXray 0\n            -displayTextures 0\n            -smoothWireframe 0\n            -lineWidth 1\n            -textureAnisotropic 0\n            -textureHilight 1\n            -textureSampling 2\n            -textureDisplay \"modulate\" \n            -textureMaxSize 16384\n            -fogging 0\n            -fogSource \"fragment\" \n            -fogMode \"linear\" \n            -fogStart 0\n            -fogEnd 100\n            -fogDensity 0.1\n            -fogColor 0.5 0.5 0.5 1 \n            -depthOfFieldPreview 1\n            -maxConstantTransparency 1\n            -rendererName \"vp2Renderer\" \n            -objectFilterShowInHUD 1\n            -isFiltered 0\n            -colorResolution 256 256 \n"
		+ "            -bumpResolution 512 512 \n            -textureCompression 0\n            -transparencyAlgorithm \"frontAndBackCull\" \n            -transpInShadows 0\n            -cullingOverride \"none\" \n            -lowQualityLighting 0\n            -maximumNumHardwareLights 1\n            -occlusionCulling 0\n            -shadingModel 0\n            -useBaseRenderer 0\n            -useReducedRenderer 0\n            -smallObjectCulling 0\n            -smallObjectThreshold -1 \n            -interactiveDisableShadows 0\n            -interactiveBackFaceCull 0\n            -sortTransparent 1\n            -controllers 1\n            -nurbsCurves 1\n            -nurbsSurfaces 1\n            -polymeshes 1\n            -subdivSurfaces 1\n            -planes 1\n            -lights 1\n            -cameras 1\n            -controlVertices 1\n            -hulls 1\n            -grid 1\n            -imagePlane 1\n            -joints 1\n            -ikHandles 1\n            -deformers 1\n            -dynamics 1\n            -particleInstancers 1\n            -fluids 1\n"
		+ "            -hairSystems 1\n            -follicles 1\n            -nCloths 1\n            -nParticles 1\n            -nRigids 1\n            -dynamicConstraints 1\n            -locators 1\n            -manipulators 1\n            -pluginShapes 1\n            -dimensions 1\n            -handles 1\n            -pivots 1\n            -textures 1\n            -strokes 1\n            -motionTrails 1\n            -clipGhosts 1\n            -greasePencils 1\n            -shadows 0\n            -captureSequenceNumber -1\n            -width 1\n            -height 1\n            -sceneRenderFilter 0\n            $editorName;\n        modelEditor -e -viewSelected 0 $editorName;\n        modelEditor -e \n            -pluginObjects \"gpuCacheDisplayFilter\" 1 \n            $editorName;\n\t\tif (!$useSceneConfig) {\n\t\t\tpanel -e -l $label $panelName;\n\t\t}\n\t}\n\n\n\t$panelName = `sceneUIReplacement -getNextPanel \"modelPanel\" (localizedPanelLabel(\"Side View\")) `;\n\tif (\"\" != $panelName) {\n\t\t$label = `panel -q -label $panelName`;\n\t\tmodelPanel -edit -l (localizedPanelLabel(\"Side View\")) -mbv $menusOkayInPanels  $panelName;\n"
		+ "\t\t$editorName = $panelName;\n        modelEditor -e \n            -camera \"side\" \n            -useInteractiveMode 0\n            -displayLights \"default\" \n            -displayAppearance \"smoothShaded\" \n            -activeOnly 0\n            -ignorePanZoom 0\n            -wireframeOnShaded 0\n            -headsUpDisplay 1\n            -holdOuts 1\n            -selectionHiliteDisplay 1\n            -useDefaultMaterial 0\n            -bufferMode \"double\" \n            -twoSidedLighting 0\n            -backfaceCulling 0\n            -xray 0\n            -jointXray 0\n            -activeComponentsXray 0\n            -displayTextures 0\n            -smoothWireframe 0\n            -lineWidth 1\n            -textureAnisotropic 0\n            -textureHilight 1\n            -textureSampling 2\n            -textureDisplay \"modulate\" \n            -textureMaxSize 16384\n            -fogging 0\n            -fogSource \"fragment\" \n            -fogMode \"linear\" \n            -fogStart 0\n            -fogEnd 100\n            -fogDensity 0.1\n            -fogColor 0.5 0.5 0.5 1 \n"
		+ "            -depthOfFieldPreview 1\n            -maxConstantTransparency 1\n            -rendererName \"vp2Renderer\" \n            -objectFilterShowInHUD 1\n            -isFiltered 0\n            -colorResolution 256 256 \n            -bumpResolution 512 512 \n            -textureCompression 0\n            -transparencyAlgorithm \"frontAndBackCull\" \n            -transpInShadows 0\n            -cullingOverride \"none\" \n            -lowQualityLighting 0\n            -maximumNumHardwareLights 1\n            -occlusionCulling 0\n            -shadingModel 0\n            -useBaseRenderer 0\n            -useReducedRenderer 0\n            -smallObjectCulling 0\n            -smallObjectThreshold -1 \n            -interactiveDisableShadows 0\n            -interactiveBackFaceCull 0\n            -sortTransparent 1\n            -controllers 1\n            -nurbsCurves 1\n            -nurbsSurfaces 1\n            -polymeshes 1\n            -subdivSurfaces 1\n            -planes 1\n            -lights 1\n            -cameras 1\n            -controlVertices 1\n"
		+ "            -hulls 1\n            -grid 1\n            -imagePlane 1\n            -joints 1\n            -ikHandles 1\n            -deformers 1\n            -dynamics 1\n            -particleInstancers 1\n            -fluids 1\n            -hairSystems 1\n            -follicles 1\n            -nCloths 1\n            -nParticles 1\n            -nRigids 1\n            -dynamicConstraints 1\n            -locators 1\n            -manipulators 1\n            -pluginShapes 1\n            -dimensions 1\n            -handles 1\n            -pivots 1\n            -textures 1\n            -strokes 1\n            -motionTrails 1\n            -clipGhosts 1\n            -greasePencils 1\n            -shadows 0\n            -captureSequenceNumber -1\n            -width 1\n            -height 1\n            -sceneRenderFilter 0\n            $editorName;\n        modelEditor -e -viewSelected 0 $editorName;\n        modelEditor -e \n            -pluginObjects \"gpuCacheDisplayFilter\" 1 \n            $editorName;\n\t\tif (!$useSceneConfig) {\n\t\t\tpanel -e -l $label $panelName;\n"
		+ "\t\t}\n\t}\n\n\n\t$panelName = `sceneUIReplacement -getNextPanel \"modelPanel\" (localizedPanelLabel(\"Front View\")) `;\n\tif (\"\" != $panelName) {\n\t\t$label = `panel -q -label $panelName`;\n\t\tmodelPanel -edit -l (localizedPanelLabel(\"Front View\")) -mbv $menusOkayInPanels  $panelName;\n\t\t$editorName = $panelName;\n        modelEditor -e \n            -camera \"front\" \n            -useInteractiveMode 0\n            -displayLights \"default\" \n            -displayAppearance \"smoothShaded\" \n            -activeOnly 0\n            -ignorePanZoom 0\n            -wireframeOnShaded 0\n            -headsUpDisplay 1\n            -holdOuts 1\n            -selectionHiliteDisplay 1\n            -useDefaultMaterial 0\n            -bufferMode \"double\" \n            -twoSidedLighting 0\n            -backfaceCulling 0\n            -xray 0\n            -jointXray 0\n            -activeComponentsXray 0\n            -displayTextures 0\n            -smoothWireframe 0\n            -lineWidth 1\n            -textureAnisotropic 0\n            -textureHilight 1\n            -textureSampling 2\n"
		+ "            -textureDisplay \"modulate\" \n            -textureMaxSize 16384\n            -fogging 0\n            -fogSource \"fragment\" \n            -fogMode \"linear\" \n            -fogStart 0\n            -fogEnd 100\n            -fogDensity 0.1\n            -fogColor 0.5 0.5 0.5 1 \n            -depthOfFieldPreview 1\n            -maxConstantTransparency 1\n            -rendererName \"vp2Renderer\" \n            -objectFilterShowInHUD 1\n            -isFiltered 0\n            -colorResolution 256 256 \n            -bumpResolution 512 512 \n            -textureCompression 0\n            -transparencyAlgorithm \"frontAndBackCull\" \n            -transpInShadows 0\n            -cullingOverride \"none\" \n            -lowQualityLighting 0\n            -maximumNumHardwareLights 1\n            -occlusionCulling 0\n            -shadingModel 0\n            -useBaseRenderer 0\n            -useReducedRenderer 0\n            -smallObjectCulling 0\n            -smallObjectThreshold -1 \n            -interactiveDisableShadows 0\n            -interactiveBackFaceCull 0\n"
		+ "            -sortTransparent 1\n            -controllers 1\n            -nurbsCurves 1\n            -nurbsSurfaces 1\n            -polymeshes 1\n            -subdivSurfaces 1\n            -planes 1\n            -lights 1\n            -cameras 1\n            -controlVertices 1\n            -hulls 1\n            -grid 1\n            -imagePlane 1\n            -joints 1\n            -ikHandles 1\n            -deformers 1\n            -dynamics 1\n            -particleInstancers 1\n            -fluids 1\n            -hairSystems 1\n            -follicles 1\n            -nCloths 1\n            -nParticles 1\n            -nRigids 1\n            -dynamicConstraints 1\n            -locators 1\n            -manipulators 1\n            -pluginShapes 1\n            -dimensions 1\n            -handles 1\n            -pivots 1\n            -textures 1\n            -strokes 1\n            -motionTrails 1\n            -clipGhosts 1\n            -greasePencils 1\n            -shadows 0\n            -captureSequenceNumber -1\n            -width 1\n            -height 1\n"
		+ "            -sceneRenderFilter 0\n            $editorName;\n        modelEditor -e -viewSelected 0 $editorName;\n        modelEditor -e \n            -pluginObjects \"gpuCacheDisplayFilter\" 1 \n            $editorName;\n\t\tif (!$useSceneConfig) {\n\t\t\tpanel -e -l $label $panelName;\n\t\t}\n\t}\n\n\n\t$panelName = `sceneUIReplacement -getNextPanel \"modelPanel\" (localizedPanelLabel(\"Persp View\")) `;\n\tif (\"\" != $panelName) {\n\t\t$label = `panel -q -label $panelName`;\n\t\tmodelPanel -edit -l (localizedPanelLabel(\"Persp View\")) -mbv $menusOkayInPanels  $panelName;\n\t\t$editorName = $panelName;\n        modelEditor -e \n            -camera \"persp\" \n            -useInteractiveMode 0\n            -displayLights \"default\" \n            -displayAppearance \"smoothShaded\" \n            -activeOnly 0\n            -ignorePanZoom 0\n            -wireframeOnShaded 0\n            -headsUpDisplay 1\n            -holdOuts 1\n            -selectionHiliteDisplay 1\n            -useDefaultMaterial 0\n            -bufferMode \"double\" \n            -twoSidedLighting 0\n            -backfaceCulling 0\n"
		+ "            -xray 0\n            -jointXray 0\n            -activeComponentsXray 0\n            -displayTextures 0\n            -smoothWireframe 0\n            -lineWidth 1\n            -textureAnisotropic 0\n            -textureHilight 1\n            -textureSampling 2\n            -textureDisplay \"modulate\" \n            -textureMaxSize 16384\n            -fogging 0\n            -fogSource \"fragment\" \n            -fogMode \"linear\" \n            -fogStart 0\n            -fogEnd 100\n            -fogDensity 0.1\n            -fogColor 0.5 0.5 0.5 1 \n            -depthOfFieldPreview 1\n            -maxConstantTransparency 1\n            -rendererName \"vp2Renderer\" \n            -objectFilterShowInHUD 1\n            -isFiltered 0\n            -colorResolution 256 256 \n            -bumpResolution 512 512 \n            -textureCompression 0\n            -transparencyAlgorithm \"frontAndBackCull\" \n            -transpInShadows 0\n            -cullingOverride \"none\" \n            -lowQualityLighting 0\n            -maximumNumHardwareLights 1\n            -occlusionCulling 0\n"
		+ "            -shadingModel 0\n            -useBaseRenderer 0\n            -useReducedRenderer 0\n            -smallObjectCulling 0\n            -smallObjectThreshold -1 \n            -interactiveDisableShadows 0\n            -interactiveBackFaceCull 0\n            -sortTransparent 1\n            -controllers 1\n            -nurbsCurves 1\n            -nurbsSurfaces 1\n            -polymeshes 1\n            -subdivSurfaces 1\n            -planes 1\n            -lights 1\n            -cameras 1\n            -controlVertices 1\n            -hulls 1\n            -grid 1\n            -imagePlane 1\n            -joints 1\n            -ikHandles 1\n            -deformers 1\n            -dynamics 1\n            -particleInstancers 1\n            -fluids 1\n            -hairSystems 1\n            -follicles 1\n            -nCloths 1\n            -nParticles 1\n            -nRigids 1\n            -dynamicConstraints 1\n            -locators 1\n            -manipulators 1\n            -pluginShapes 1\n            -dimensions 1\n            -handles 1\n            -pivots 1\n"
		+ "            -textures 1\n            -strokes 1\n            -motionTrails 1\n            -clipGhosts 1\n            -greasePencils 1\n            -shadows 0\n            -captureSequenceNumber -1\n            -width 1119\n            -height 716\n            -sceneRenderFilter 0\n            $editorName;\n        modelEditor -e -viewSelected 0 $editorName;\n        modelEditor -e \n            -pluginObjects \"gpuCacheDisplayFilter\" 1 \n            $editorName;\n\t\tif (!$useSceneConfig) {\n\t\t\tpanel -e -l $label $panelName;\n\t\t}\n\t}\n\n\n\t$panelName = `sceneUIReplacement -getNextPanel \"outlinerPanel\" (localizedPanelLabel(\"ToggledOutliner\")) `;\n\tif (\"\" != $panelName) {\n\t\t$label = `panel -q -label $panelName`;\n\t\toutlinerPanel -edit -l (localizedPanelLabel(\"ToggledOutliner\")) -mbv $menusOkayInPanels  $panelName;\n\t\t$editorName = $panelName;\n        outlinerEditor -e \n            -showShapes 1\n            -showAssignedMaterials 0\n            -showTimeEditor 1\n            -showReferenceNodes 1\n            -showReferenceMembers 1\n            -showAttributes 0\n"
		+ "            -showConnected 0\n            -showAnimCurvesOnly 0\n            -showMuteInfo 0\n            -organizeByLayer 1\n            -organizeByClip 1\n            -showAnimLayerWeight 1\n            -autoExpandLayers 1\n            -autoExpand 0\n            -showDagOnly 1\n            -showAssets 1\n            -showContainedOnly 1\n            -showPublishedAsConnected 0\n            -showParentContainers 0\n            -showContainerContents 1\n            -ignoreDagHierarchy 0\n            -expandConnections 0\n            -showUpstreamCurves 1\n            -showUnitlessCurves 1\n            -showCompounds 1\n            -showLeafs 1\n            -showNumericAttrsOnly 0\n            -highlightActive 1\n            -autoSelectNewObjects 0\n            -doNotSelectNewObjects 0\n            -dropIsParent 1\n            -transmitFilters 0\n            -setFilter \"defaultSetFilter\" \n            -showSetMembers 1\n            -allowMultiSelection 1\n            -alwaysToggleSelect 0\n            -directSelect 0\n            -isSet 0\n            -isSetMember 0\n"
		+ "            -displayMode \"DAG\" \n            -expandObjects 0\n            -setsIgnoreFilters 1\n            -containersIgnoreFilters 0\n            -editAttrName 0\n            -showAttrValues 0\n            -highlightSecondary 0\n            -showUVAttrsOnly 0\n            -showTextureNodesOnly 0\n            -attrAlphaOrder \"default\" \n            -animLayerFilterOptions \"allAffecting\" \n            -sortOrder \"none\" \n            -longNames 0\n            -niceNames 1\n            -showNamespace 1\n            -showPinIcons 0\n            -mapMotionTrails 0\n            -ignoreHiddenAttribute 0\n            -ignoreOutlinerColor 0\n            -renderFilterVisible 0\n            -renderFilterIndex 0\n            -selectionOrder \"chronological\" \n            -expandAttribute 0\n            $editorName;\n\t\tif (!$useSceneConfig) {\n\t\t\tpanel -e -l $label $panelName;\n\t\t}\n\t}\n\n\n\t$panelName = `sceneUIReplacement -getNextPanel \"outlinerPanel\" (localizedPanelLabel(\"Outliner\")) `;\n\tif (\"\" != $panelName) {\n\t\t$label = `panel -q -label $panelName`;\n"
		+ "\t\toutlinerPanel -edit -l (localizedPanelLabel(\"Outliner\")) -mbv $menusOkayInPanels  $panelName;\n\t\t$editorName = $panelName;\n        outlinerEditor -e \n            -showShapes 0\n            -showAssignedMaterials 0\n            -showTimeEditor 1\n            -showReferenceNodes 0\n            -showReferenceMembers 0\n            -showAttributes 0\n            -showConnected 0\n            -showAnimCurvesOnly 0\n            -showMuteInfo 0\n            -organizeByLayer 1\n            -organizeByClip 1\n            -showAnimLayerWeight 1\n            -autoExpandLayers 1\n            -autoExpand 0\n            -showDagOnly 1\n            -showAssets 1\n            -showContainedOnly 1\n            -showPublishedAsConnected 0\n            -showParentContainers 0\n            -showContainerContents 1\n            -ignoreDagHierarchy 0\n            -expandConnections 0\n            -showUpstreamCurves 1\n            -showUnitlessCurves 1\n            -showCompounds 1\n            -showLeafs 1\n            -showNumericAttrsOnly 0\n            -highlightActive 1\n"
		+ "            -autoSelectNewObjects 0\n            -doNotSelectNewObjects 0\n            -dropIsParent 1\n            -transmitFilters 0\n            -setFilter \"defaultSetFilter\" \n            -showSetMembers 1\n            -allowMultiSelection 1\n            -alwaysToggleSelect 0\n            -directSelect 0\n            -displayMode \"DAG\" \n            -expandObjects 0\n            -setsIgnoreFilters 1\n            -containersIgnoreFilters 0\n            -editAttrName 0\n            -showAttrValues 0\n            -highlightSecondary 0\n            -showUVAttrsOnly 0\n            -showTextureNodesOnly 0\n            -attrAlphaOrder \"default\" \n            -animLayerFilterOptions \"allAffecting\" \n            -sortOrder \"none\" \n            -longNames 0\n            -niceNames 1\n            -showNamespace 1\n            -showPinIcons 0\n            -mapMotionTrails 0\n            -ignoreHiddenAttribute 0\n            -ignoreOutlinerColor 0\n            -renderFilterVisible 0\n            $editorName;\n\t\tif (!$useSceneConfig) {\n\t\t\tpanel -e -l $label $panelName;\n"
		+ "\t\t}\n\t}\n\n\n\t$panelName = `sceneUIReplacement -getNextScriptedPanel \"graphEditor\" (localizedPanelLabel(\"Graph Editor\")) `;\n\tif (\"\" != $panelName) {\n\t\t$label = `panel -q -label $panelName`;\n\t\tscriptedPanel -edit -l (localizedPanelLabel(\"Graph Editor\")) -mbv $menusOkayInPanels  $panelName;\n\n\t\t\t$editorName = ($panelName+\"OutlineEd\");\n            outlinerEditor -e \n                -showShapes 1\n                -showAssignedMaterials 0\n                -showTimeEditor 1\n                -showReferenceNodes 0\n                -showReferenceMembers 0\n                -showAttributes 1\n                -showConnected 1\n                -showAnimCurvesOnly 1\n                -showMuteInfo 0\n                -organizeByLayer 1\n                -organizeByClip 1\n                -showAnimLayerWeight 1\n                -autoExpandLayers 1\n                -autoExpand 1\n                -showDagOnly 0\n                -showAssets 1\n                -showContainedOnly 0\n                -showPublishedAsConnected 0\n                -showParentContainers 1\n"
		+ "                -showContainerContents 0\n                -ignoreDagHierarchy 0\n                -expandConnections 1\n                -showUpstreamCurves 1\n                -showUnitlessCurves 1\n                -showCompounds 0\n                -showLeafs 1\n                -showNumericAttrsOnly 1\n                -highlightActive 0\n                -autoSelectNewObjects 1\n                -doNotSelectNewObjects 0\n                -dropIsParent 1\n                -transmitFilters 1\n                -setFilter \"0\" \n                -showSetMembers 0\n                -allowMultiSelection 1\n                -alwaysToggleSelect 0\n                -directSelect 0\n                -displayMode \"DAG\" \n                -expandObjects 0\n                -setsIgnoreFilters 1\n                -containersIgnoreFilters 0\n                -editAttrName 0\n                -showAttrValues 0\n                -highlightSecondary 0\n                -showUVAttrsOnly 0\n                -showTextureNodesOnly 0\n                -attrAlphaOrder \"default\" \n                -animLayerFilterOptions \"allAffecting\" \n"
		+ "                -sortOrder \"none\" \n                -longNames 0\n                -niceNames 1\n                -showNamespace 1\n                -showPinIcons 1\n                -mapMotionTrails 1\n                -ignoreHiddenAttribute 0\n                -ignoreOutlinerColor 0\n                -renderFilterVisible 0\n                $editorName;\n\n\t\t\t$editorName = ($panelName+\"GraphEd\");\n            animCurveEditor -e \n                -displayKeys 1\n                -displayTangents 0\n                -displayActiveKeys 0\n                -displayActiveKeyTangents 1\n                -displayInfinities 0\n                -displayValues 0\n                -autoFit 1\n                -snapTime \"integer\" \n                -snapValue \"none\" \n                -showResults \"off\" \n                -showBufferCurves \"off\" \n                -smoothness \"fine\" \n                -resultSamples 1\n                -resultScreenSamples 0\n                -resultUpdate \"delayed\" \n                -showUpstreamCurves 1\n                -showCurveNames 0\n"
		+ "                -showActiveCurveNames 0\n                -stackedCurves 0\n                -stackedCurvesMin -1\n                -stackedCurvesMax 1\n                -stackedCurvesSpace 0.2\n                -displayNormalized 0\n                -preSelectionHighlight 0\n                -constrainDrag 0\n                -classicMode 1\n                -valueLinesToggle 1\n                $editorName;\n\t\tif (!$useSceneConfig) {\n\t\t\tpanel -e -l $label $panelName;\n\t\t}\n\t}\n\n\n\t$panelName = `sceneUIReplacement -getNextScriptedPanel \"dopeSheetPanel\" (localizedPanelLabel(\"Dope Sheet\")) `;\n\tif (\"\" != $panelName) {\n\t\t$label = `panel -q -label $panelName`;\n\t\tscriptedPanel -edit -l (localizedPanelLabel(\"Dope Sheet\")) -mbv $menusOkayInPanels  $panelName;\n\n\t\t\t$editorName = ($panelName+\"OutlineEd\");\n            outlinerEditor -e \n                -showShapes 1\n                -showAssignedMaterials 0\n                -showTimeEditor 1\n                -showReferenceNodes 0\n                -showReferenceMembers 0\n                -showAttributes 1\n"
		+ "                -showConnected 1\n                -showAnimCurvesOnly 1\n                -showMuteInfo 0\n                -organizeByLayer 1\n                -organizeByClip 1\n                -showAnimLayerWeight 1\n                -autoExpandLayers 1\n                -autoExpand 0\n                -showDagOnly 0\n                -showAssets 1\n                -showContainedOnly 0\n                -showPublishedAsConnected 0\n                -showParentContainers 1\n                -showContainerContents 0\n                -ignoreDagHierarchy 0\n                -expandConnections 1\n                -showUpstreamCurves 1\n                -showUnitlessCurves 0\n                -showCompounds 1\n                -showLeafs 1\n                -showNumericAttrsOnly 1\n                -highlightActive 0\n                -autoSelectNewObjects 0\n                -doNotSelectNewObjects 1\n                -dropIsParent 1\n                -transmitFilters 0\n                -setFilter \"0\" \n                -showSetMembers 0\n                -allowMultiSelection 1\n"
		+ "                -alwaysToggleSelect 0\n                -directSelect 0\n                -displayMode \"DAG\" \n                -expandObjects 0\n                -setsIgnoreFilters 1\n                -containersIgnoreFilters 0\n                -editAttrName 0\n                -showAttrValues 0\n                -highlightSecondary 0\n                -showUVAttrsOnly 0\n                -showTextureNodesOnly 0\n                -attrAlphaOrder \"default\" \n                -animLayerFilterOptions \"allAffecting\" \n                -sortOrder \"none\" \n                -longNames 0\n                -niceNames 1\n                -showNamespace 1\n                -showPinIcons 0\n                -mapMotionTrails 1\n                -ignoreHiddenAttribute 0\n                -ignoreOutlinerColor 0\n                -renderFilterVisible 0\n                $editorName;\n\n\t\t\t$editorName = ($panelName+\"DopeSheetEd\");\n            dopeSheetEditor -e \n                -displayKeys 1\n                -displayTangents 0\n                -displayActiveKeys 0\n                -displayActiveKeyTangents 0\n"
		+ "                -displayInfinities 0\n                -displayValues 0\n                -autoFit 0\n                -snapTime \"integer\" \n                -snapValue \"none\" \n                -outliner \"dopeSheetPanel1OutlineEd\" \n                -showSummary 1\n                -showScene 0\n                -hierarchyBelow 0\n                -showTicks 1\n                -selectionWindow 0 0 0 0 \n                $editorName;\n\t\tif (!$useSceneConfig) {\n\t\t\tpanel -e -l $label $panelName;\n\t\t}\n\t}\n\n\n\t$panelName = `sceneUIReplacement -getNextScriptedPanel \"timeEditorPanel\" (localizedPanelLabel(\"Time Editor\")) `;\n\tif (\"\" != $panelName) {\n\t\t$label = `panel -q -label $panelName`;\n\t\tscriptedPanel -edit -l (localizedPanelLabel(\"Time Editor\")) -mbv $menusOkayInPanels  $panelName;\n\t\tif (!$useSceneConfig) {\n\t\t\tpanel -e -l $label $panelName;\n\t\t}\n\t}\n\n\n\t$panelName = `sceneUIReplacement -getNextScriptedPanel \"clipEditorPanel\" (localizedPanelLabel(\"Trax Editor\")) `;\n\tif (\"\" != $panelName) {\n\t\t$label = `panel -q -label $panelName`;\n\t\tscriptedPanel -edit -l (localizedPanelLabel(\"Trax Editor\")) -mbv $menusOkayInPanels  $panelName;\n"
		+ "\n\t\t\t$editorName = clipEditorNameFromPanel($panelName);\n            clipEditor -e \n                -displayKeys 0\n                -displayTangents 0\n                -displayActiveKeys 0\n                -displayActiveKeyTangents 0\n                -displayInfinities 0\n                -displayValues 0\n                -autoFit 0\n                -snapTime \"none\" \n                -snapValue \"none\" \n                -initialized 0\n                -manageSequencer 0 \n                $editorName;\n\t\tif (!$useSceneConfig) {\n\t\t\tpanel -e -l $label $panelName;\n\t\t}\n\t}\n\n\n\t$panelName = `sceneUIReplacement -getNextScriptedPanel \"sequenceEditorPanel\" (localizedPanelLabel(\"Camera Sequencer\")) `;\n\tif (\"\" != $panelName) {\n\t\t$label = `panel -q -label $panelName`;\n\t\tscriptedPanel -edit -l (localizedPanelLabel(\"Camera Sequencer\")) -mbv $menusOkayInPanels  $panelName;\n\n\t\t\t$editorName = sequenceEditorNameFromPanel($panelName);\n            clipEditor -e \n                -displayKeys 0\n                -displayTangents 0\n                -displayActiveKeys 0\n"
		+ "                -displayActiveKeyTangents 0\n                -displayInfinities 0\n                -displayValues 0\n                -autoFit 0\n                -snapTime \"none\" \n                -snapValue \"none\" \n                -initialized 0\n                -manageSequencer 1 \n                $editorName;\n\t\tif (!$useSceneConfig) {\n\t\t\tpanel -e -l $label $panelName;\n\t\t}\n\t}\n\n\n\t$panelName = `sceneUIReplacement -getNextScriptedPanel \"hyperGraphPanel\" (localizedPanelLabel(\"Hypergraph Hierarchy\")) `;\n\tif (\"\" != $panelName) {\n\t\t$label = `panel -q -label $panelName`;\n\t\tscriptedPanel -edit -l (localizedPanelLabel(\"Hypergraph Hierarchy\")) -mbv $menusOkayInPanels  $panelName;\n\n\t\t\t$editorName = ($panelName+\"HyperGraphEd\");\n            hyperGraph -e \n                -graphLayoutStyle \"hierarchicalLayout\" \n                -orientation \"horiz\" \n                -mergeConnections 0\n                -zoom 1\n                -animateTransition 0\n                -showRelationships 1\n                -showShapes 0\n                -showDeformers 0\n"
		+ "                -showExpressions 0\n                -showConstraints 0\n                -showConnectionFromSelected 0\n                -showConnectionToSelected 0\n                -showConstraintLabels 0\n                -showUnderworld 0\n                -showInvisible 0\n                -transitionFrames 1\n                -opaqueContainers 0\n                -freeform 0\n                -imagePosition 0 0 \n                -imageScale 1\n                -imageEnabled 0\n                -graphType \"DAG\" \n                -heatMapDisplay 0\n                -updateSelection 1\n                -updateNodeAdded 1\n                -useDrawOverrideColor 0\n                -limitGraphTraversal -1\n                -range 0 0 \n                -iconSize \"smallIcons\" \n                -showCachedConnections 0\n                $editorName;\n\t\tif (!$useSceneConfig) {\n\t\t\tpanel -e -l $label $panelName;\n\t\t}\n\t}\n\n\n\t$panelName = `sceneUIReplacement -getNextScriptedPanel \"hyperShadePanel\" (localizedPanelLabel(\"Hypershade\")) `;\n\tif (\"\" != $panelName) {\n"
		+ "\t\t$label = `panel -q -label $panelName`;\n\t\tscriptedPanel -edit -l (localizedPanelLabel(\"Hypershade\")) -mbv $menusOkayInPanels  $panelName;\n\t\tif (!$useSceneConfig) {\n\t\t\tpanel -e -l $label $panelName;\n\t\t}\n\t}\n\n\n\t$panelName = `sceneUIReplacement -getNextScriptedPanel \"visorPanel\" (localizedPanelLabel(\"Visor\")) `;\n\tif (\"\" != $panelName) {\n\t\t$label = `panel -q -label $panelName`;\n\t\tscriptedPanel -edit -l (localizedPanelLabel(\"Visor\")) -mbv $menusOkayInPanels  $panelName;\n\t\tif (!$useSceneConfig) {\n\t\t\tpanel -e -l $label $panelName;\n\t\t}\n\t}\n\n\n\t$panelName = `sceneUIReplacement -getNextScriptedPanel \"createNodePanel\" (localizedPanelLabel(\"Create Node\")) `;\n\tif (\"\" != $panelName) {\n\t\t$label = `panel -q -label $panelName`;\n\t\tscriptedPanel -edit -l (localizedPanelLabel(\"Create Node\")) -mbv $menusOkayInPanels  $panelName;\n\t\tif (!$useSceneConfig) {\n\t\t\tpanel -e -l $label $panelName;\n\t\t}\n\t}\n\n\n\t$panelName = `sceneUIReplacement -getNextScriptedPanel \"polyTexturePlacementPanel\" (localizedPanelLabel(\"UV Editor\")) `;\n\tif (\"\" != $panelName) {\n"
		+ "\t\t$label = `panel -q -label $panelName`;\n\t\tscriptedPanel -edit -l (localizedPanelLabel(\"UV Editor\")) -mbv $menusOkayInPanels  $panelName;\n\t\tif (!$useSceneConfig) {\n\t\t\tpanel -e -l $label $panelName;\n\t\t}\n\t}\n\n\n\t$panelName = `sceneUIReplacement -getNextScriptedPanel \"renderWindowPanel\" (localizedPanelLabel(\"Render View\")) `;\n\tif (\"\" != $panelName) {\n\t\t$label = `panel -q -label $panelName`;\n\t\tscriptedPanel -edit -l (localizedPanelLabel(\"Render View\")) -mbv $menusOkayInPanels  $panelName;\n\t\tif (!$useSceneConfig) {\n\t\t\tpanel -e -l $label $panelName;\n\t\t}\n\t}\n\n\n\t$panelName = `sceneUIReplacement -getNextPanel \"shapePanel\" (localizedPanelLabel(\"Shape Editor\")) `;\n\tif (\"\" != $panelName) {\n\t\t$label = `panel -q -label $panelName`;\n\t\tshapePanel -edit -l (localizedPanelLabel(\"Shape Editor\")) -mbv $menusOkayInPanels  $panelName;\n\t\tif (!$useSceneConfig) {\n\t\t\tpanel -e -l $label $panelName;\n\t\t}\n\t}\n\n\n\t$panelName = `sceneUIReplacement -getNextPanel \"posePanel\" (localizedPanelLabel(\"Pose Editor\")) `;\n\tif (\"\" != $panelName) {\n\t\t$label = `panel -q -label $panelName`;\n"
		+ "\t\tposePanel -edit -l (localizedPanelLabel(\"Pose Editor\")) -mbv $menusOkayInPanels  $panelName;\n\t\tif (!$useSceneConfig) {\n\t\t\tpanel -e -l $label $panelName;\n\t\t}\n\t}\n\n\n\t$panelName = `sceneUIReplacement -getNextScriptedPanel \"dynRelEdPanel\" (localizedPanelLabel(\"Dynamic Relationships\")) `;\n\tif (\"\" != $panelName) {\n\t\t$label = `panel -q -label $panelName`;\n\t\tscriptedPanel -edit -l (localizedPanelLabel(\"Dynamic Relationships\")) -mbv $menusOkayInPanels  $panelName;\n\t\tif (!$useSceneConfig) {\n\t\t\tpanel -e -l $label $panelName;\n\t\t}\n\t}\n\n\n\t$panelName = `sceneUIReplacement -getNextScriptedPanel \"relationshipPanel\" (localizedPanelLabel(\"Relationship Editor\")) `;\n\tif (\"\" != $panelName) {\n\t\t$label = `panel -q -label $panelName`;\n\t\tscriptedPanel -edit -l (localizedPanelLabel(\"Relationship Editor\")) -mbv $menusOkayInPanels  $panelName;\n\t\tif (!$useSceneConfig) {\n\t\t\tpanel -e -l $label $panelName;\n\t\t}\n\t}\n\n\n\t$panelName = `sceneUIReplacement -getNextScriptedPanel \"referenceEditorPanel\" (localizedPanelLabel(\"Reference Editor\")) `;\n\tif (\"\" != $panelName) {\n"
		+ "\t\t$label = `panel -q -label $panelName`;\n\t\tscriptedPanel -edit -l (localizedPanelLabel(\"Reference Editor\")) -mbv $menusOkayInPanels  $panelName;\n\t\tif (!$useSceneConfig) {\n\t\t\tpanel -e -l $label $panelName;\n\t\t}\n\t}\n\n\n\t$panelName = `sceneUIReplacement -getNextScriptedPanel \"componentEditorPanel\" (localizedPanelLabel(\"Component Editor\")) `;\n\tif (\"\" != $panelName) {\n\t\t$label = `panel -q -label $panelName`;\n\t\tscriptedPanel -edit -l (localizedPanelLabel(\"Component Editor\")) -mbv $menusOkayInPanels  $panelName;\n\t\tif (!$useSceneConfig) {\n\t\t\tpanel -e -l $label $panelName;\n\t\t}\n\t}\n\n\n\t$panelName = `sceneUIReplacement -getNextScriptedPanel \"dynPaintScriptedPanelType\" (localizedPanelLabel(\"Paint Effects\")) `;\n\tif (\"\" != $panelName) {\n\t\t$label = `panel -q -label $panelName`;\n\t\tscriptedPanel -edit -l (localizedPanelLabel(\"Paint Effects\")) -mbv $menusOkayInPanels  $panelName;\n\t\tif (!$useSceneConfig) {\n\t\t\tpanel -e -l $label $panelName;\n\t\t}\n\t}\n\n\n\t$panelName = `sceneUIReplacement -getNextScriptedPanel \"scriptEditorPanel\" (localizedPanelLabel(\"Script Editor\")) `;\n"
		+ "\tif (\"\" != $panelName) {\n\t\t$label = `panel -q -label $panelName`;\n\t\tscriptedPanel -edit -l (localizedPanelLabel(\"Script Editor\")) -mbv $menusOkayInPanels  $panelName;\n\t\tif (!$useSceneConfig) {\n\t\t\tpanel -e -l $label $panelName;\n\t\t}\n\t}\n\n\n\t$panelName = `sceneUIReplacement -getNextScriptedPanel \"profilerPanel\" (localizedPanelLabel(\"Profiler Tool\")) `;\n\tif (\"\" != $panelName) {\n\t\t$label = `panel -q -label $panelName`;\n\t\tscriptedPanel -edit -l (localizedPanelLabel(\"Profiler Tool\")) -mbv $menusOkayInPanels  $panelName;\n\t\tif (!$useSceneConfig) {\n\t\t\tpanel -e -l $label $panelName;\n\t\t}\n\t}\n\n\n\t$panelName = `sceneUIReplacement -getNextScriptedPanel \"contentBrowserPanel\" (localizedPanelLabel(\"Content Browser\")) `;\n\tif (\"\" != $panelName) {\n\t\t$label = `panel -q -label $panelName`;\n\t\tscriptedPanel -edit -l (localizedPanelLabel(\"Content Browser\")) -mbv $menusOkayInPanels  $panelName;\n\t\tif (!$useSceneConfig) {\n\t\t\tpanel -e -l $label $panelName;\n\t\t}\n\t}\n\n\n\t$panelName = `sceneUIReplacement -getNextScriptedPanel \"Stereo\" (localizedPanelLabel(\"Stereo\")) `;\n"
		+ "\tif (\"\" != $panelName) {\n\t\t$label = `panel -q -label $panelName`;\n\t\tscriptedPanel -edit -l (localizedPanelLabel(\"Stereo\")) -mbv $menusOkayInPanels  $panelName;\nstring $editorName = ($panelName+\"Editor\");\n            stereoCameraView -e \n                -camera \"persp\" \n                -useInteractiveMode 0\n                -displayLights \"default\" \n                -displayAppearance \"smoothShaded\" \n                -activeOnly 0\n                -ignorePanZoom 0\n                -wireframeOnShaded 0\n                -headsUpDisplay 1\n                -holdOuts 1\n                -selectionHiliteDisplay 1\n                -useDefaultMaterial 0\n                -bufferMode \"double\" \n                -twoSidedLighting 0\n                -backfaceCulling 0\n                -xray 0\n                -jointXray 0\n                -activeComponentsXray 0\n                -displayTextures 0\n                -smoothWireframe 0\n                -lineWidth 1\n                -textureAnisotropic 0\n                -textureHilight 1\n                -textureSampling 2\n"
		+ "                -textureDisplay \"modulate\" \n                -textureMaxSize 16384\n                -fogging 0\n                -fogSource \"fragment\" \n                -fogMode \"linear\" \n                -fogStart 0\n                -fogEnd 100\n                -fogDensity 0.1\n                -fogColor 0.5 0.5 0.5 1 \n                -depthOfFieldPreview 1\n                -maxConstantTransparency 1\n                -objectFilterShowInHUD 1\n                -isFiltered 0\n                -colorResolution 4 4 \n                -bumpResolution 4 4 \n                -textureCompression 0\n                -transparencyAlgorithm \"frontAndBackCull\" \n                -transpInShadows 0\n                -cullingOverride \"none\" \n                -lowQualityLighting 0\n                -maximumNumHardwareLights 0\n                -occlusionCulling 0\n                -shadingModel 0\n                -useBaseRenderer 0\n                -useReducedRenderer 0\n                -smallObjectCulling 0\n                -smallObjectThreshold -1 \n                -interactiveDisableShadows 0\n"
		+ "                -interactiveBackFaceCull 0\n                -sortTransparent 1\n                -controllers 1\n                -nurbsCurves 1\n                -nurbsSurfaces 1\n                -polymeshes 1\n                -subdivSurfaces 1\n                -planes 1\n                -lights 1\n                -cameras 1\n                -controlVertices 1\n                -hulls 1\n                -grid 1\n                -imagePlane 1\n                -joints 1\n                -ikHandles 1\n                -deformers 1\n                -dynamics 1\n                -particleInstancers 1\n                -fluids 1\n                -hairSystems 1\n                -follicles 1\n                -nCloths 1\n                -nParticles 1\n                -nRigids 1\n                -dynamicConstraints 1\n                -locators 1\n                -manipulators 1\n                -pluginShapes 1\n                -dimensions 1\n                -handles 1\n                -pivots 1\n                -textures 1\n                -strokes 1\n                -motionTrails 1\n"
		+ "                -clipGhosts 1\n                -greasePencils 1\n                -shadows 0\n                -captureSequenceNumber -1\n                -width 0\n                -height 0\n                -sceneRenderFilter 0\n                -displayMode \"centerEye\" \n                -viewColor 0 0 0 1 \n                -useCustomBackground 1\n                $editorName;\n            stereoCameraView -e -viewSelected 0 $editorName;\n            stereoCameraView -e \n                -pluginObjects \"gpuCacheDisplayFilter\" 1 \n                $editorName;\n\t\tif (!$useSceneConfig) {\n\t\t\tpanel -e -l $label $panelName;\n\t\t}\n\t}\n\n\n\t$panelName = `sceneUIReplacement -getNextScriptedPanel \"nodeEditorPanel\" (localizedPanelLabel(\"Node Editor\")) `;\n\tif (\"\" != $panelName) {\n\t\t$label = `panel -q -label $panelName`;\n\t\tscriptedPanel -edit -l (localizedPanelLabel(\"Node Editor\")) -mbv $menusOkayInPanels  $panelName;\n\n\t\t\t$editorName = ($panelName+\"NodeEditorEd\");\n            nodeEditor -e \n                -allAttributes 0\n                -allNodes 0\n"
		+ "                -autoSizeNodes 1\n                -consistentNameSize 1\n                -createNodeCommand \"nodeEdCreateNodeCommand\" \n                -connectNodeOnCreation 0\n                -connectOnDrop 0\n                -highlightConnections 0\n                -copyConnectionsOnPaste 0\n                -defaultPinnedState 0\n                -additiveGraphingMode 0\n                -settingsChangedCallback \"nodeEdSyncControls\" \n                -traversalDepthLimit -1\n                -keyPressCommand \"nodeEdKeyPressCommand\" \n                -nodeTitleMode \"name\" \n                -gridSnap 0\n                -gridVisibility 1\n                -crosshairOnEdgeDragging 0\n                -popupMenuScript \"nodeEdBuildPanelMenus\" \n                -showNamespace 1\n                -showShapes 1\n                -showSGShapes 0\n                -showTransforms 1\n                -useAssets 1\n                -syncedSelection 1\n                -extendToShapes 1\n                -activeTab -1\n                -editorMode \"default\" \n"
		+ "                $editorName;\n\t\tif (!$useSceneConfig) {\n\t\t\tpanel -e -l $label $panelName;\n\t\t}\n\t}\n\n\n\tif ($useSceneConfig) {\n        string $configName = `getPanel -cwl (localizedPanelLabel(\"Current Layout\"))`;\n        if (\"\" != $configName) {\n\t\t\tpanelConfiguration -edit -label (localizedPanelLabel(\"Current Layout\")) \n\t\t\t\t-userCreated false\n\t\t\t\t-defaultImage \"vacantCell.xP:/\"\n\t\t\t\t-image \"\"\n\t\t\t\t-sc false\n\t\t\t\t-configString \"global string $gMainPane; paneLayout -e -cn \\\"single\\\" -ps 1 100 100 $gMainPane;\"\n\t\t\t\t-removeAllPanels\n\t\t\t\t-ap false\n\t\t\t\t\t(localizedPanelLabel(\"Persp View\")) \n\t\t\t\t\t\"modelPanel\"\n"
		+ "\t\t\t\t\t\"$panelName = `modelPanel -unParent -l (localizedPanelLabel(\\\"Persp View\\\")) -mbv $menusOkayInPanels `;\\n$editorName = $panelName;\\nmodelEditor -e \\n    -cam `findStartUpCamera persp` \\n    -useInteractiveMode 0\\n    -displayLights \\\"default\\\" \\n    -displayAppearance \\\"smoothShaded\\\" \\n    -activeOnly 0\\n    -ignorePanZoom 0\\n    -wireframeOnShaded 0\\n    -headsUpDisplay 1\\n    -holdOuts 1\\n    -selectionHiliteDisplay 1\\n    -useDefaultMaterial 0\\n    -bufferMode \\\"double\\\" \\n    -twoSidedLighting 0\\n    -backfaceCulling 0\\n    -xray 0\\n    -jointXray 0\\n    -activeComponentsXray 0\\n    -displayTextures 0\\n    -smoothWireframe 0\\n    -lineWidth 1\\n    -textureAnisotropic 0\\n    -textureHilight 1\\n    -textureSampling 2\\n    -textureDisplay \\\"modulate\\\" \\n    -textureMaxSize 16384\\n    -fogging 0\\n    -fogSource \\\"fragment\\\" \\n    -fogMode \\\"linear\\\" \\n    -fogStart 0\\n    -fogEnd 100\\n    -fogDensity 0.1\\n    -fogColor 0.5 0.5 0.5 1 \\n    -depthOfFieldPreview 1\\n    -maxConstantTransparency 1\\n    -rendererName \\\"vp2Renderer\\\" \\n    -objectFilterShowInHUD 1\\n    -isFiltered 0\\n    -colorResolution 256 256 \\n    -bumpResolution 512 512 \\n    -textureCompression 0\\n    -transparencyAlgorithm \\\"frontAndBackCull\\\" \\n    -transpInShadows 0\\n    -cullingOverride \\\"none\\\" \\n    -lowQualityLighting 0\\n    -maximumNumHardwareLights 1\\n    -occlusionCulling 0\\n    -shadingModel 0\\n    -useBaseRenderer 0\\n    -useReducedRenderer 0\\n    -smallObjectCulling 0\\n    -smallObjectThreshold -1 \\n    -interactiveDisableShadows 0\\n    -interactiveBackFaceCull 0\\n    -sortTransparent 1\\n    -controllers 1\\n    -nurbsCurves 1\\n    -nurbsSurfaces 1\\n    -polymeshes 1\\n    -subdivSurfaces 1\\n    -planes 1\\n    -lights 1\\n    -cameras 1\\n    -controlVertices 1\\n    -hulls 1\\n    -grid 1\\n    -imagePlane 1\\n    -joints 1\\n    -ikHandles 1\\n    -deformers 1\\n    -dynamics 1\\n    -particleInstancers 1\\n    -fluids 1\\n    -hairSystems 1\\n    -follicles 1\\n    -nCloths 1\\n    -nParticles 1\\n    -nRigids 1\\n    -dynamicConstraints 1\\n    -locators 1\\n    -manipulators 1\\n    -pluginShapes 1\\n    -dimensions 1\\n    -handles 1\\n    -pivots 1\\n    -textures 1\\n    -strokes 1\\n    -motionTrails 1\\n    -clipGhosts 1\\n    -greasePencils 1\\n    -shadows 0\\n    -captureSequenceNumber -1\\n    -width 1119\\n    -height 716\\n    -sceneRenderFilter 0\\n    $editorName;\\nmodelEditor -e -viewSelected 0 $editorName;\\nmodelEditor -e \\n    -pluginObjects \\\"gpuCacheDisplayFilter\\\" 1 \\n    $editorName\"\n"
		+ "\t\t\t\t\t\"modelPanel -edit -l (localizedPanelLabel(\\\"Persp View\\\")) -mbv $menusOkayInPanels  $panelName;\\n$editorName = $panelName;\\nmodelEditor -e \\n    -cam `findStartUpCamera persp` \\n    -useInteractiveMode 0\\n    -displayLights \\\"default\\\" \\n    -displayAppearance \\\"smoothShaded\\\" \\n    -activeOnly 0\\n    -ignorePanZoom 0\\n    -wireframeOnShaded 0\\n    -headsUpDisplay 1\\n    -holdOuts 1\\n    -selectionHiliteDisplay 1\\n    -useDefaultMaterial 0\\n    -bufferMode \\\"double\\\" \\n    -twoSidedLighting 0\\n    -backfaceCulling 0\\n    -xray 0\\n    -jointXray 0\\n    -activeComponentsXray 0\\n    -displayTextures 0\\n    -smoothWireframe 0\\n    -lineWidth 1\\n    -textureAnisotropic 0\\n    -textureHilight 1\\n    -textureSampling 2\\n    -textureDisplay \\\"modulate\\\" \\n    -textureMaxSize 16384\\n    -fogging 0\\n    -fogSource \\\"fragment\\\" \\n    -fogMode \\\"linear\\\" \\n    -fogStart 0\\n    -fogEnd 100\\n    -fogDensity 0.1\\n    -fogColor 0.5 0.5 0.5 1 \\n    -depthOfFieldPreview 1\\n    -maxConstantTransparency 1\\n    -rendererName \\\"vp2Renderer\\\" \\n    -objectFilterShowInHUD 1\\n    -isFiltered 0\\n    -colorResolution 256 256 \\n    -bumpResolution 512 512 \\n    -textureCompression 0\\n    -transparencyAlgorithm \\\"frontAndBackCull\\\" \\n    -transpInShadows 0\\n    -cullingOverride \\\"none\\\" \\n    -lowQualityLighting 0\\n    -maximumNumHardwareLights 1\\n    -occlusionCulling 0\\n    -shadingModel 0\\n    -useBaseRenderer 0\\n    -useReducedRenderer 0\\n    -smallObjectCulling 0\\n    -smallObjectThreshold -1 \\n    -interactiveDisableShadows 0\\n    -interactiveBackFaceCull 0\\n    -sortTransparent 1\\n    -controllers 1\\n    -nurbsCurves 1\\n    -nurbsSurfaces 1\\n    -polymeshes 1\\n    -subdivSurfaces 1\\n    -planes 1\\n    -lights 1\\n    -cameras 1\\n    -controlVertices 1\\n    -hulls 1\\n    -grid 1\\n    -imagePlane 1\\n    -joints 1\\n    -ikHandles 1\\n    -deformers 1\\n    -dynamics 1\\n    -particleInstancers 1\\n    -fluids 1\\n    -hairSystems 1\\n    -follicles 1\\n    -nCloths 1\\n    -nParticles 1\\n    -nRigids 1\\n    -dynamicConstraints 1\\n    -locators 1\\n    -manipulators 1\\n    -pluginShapes 1\\n    -dimensions 1\\n    -handles 1\\n    -pivots 1\\n    -textures 1\\n    -strokes 1\\n    -motionTrails 1\\n    -clipGhosts 1\\n    -greasePencils 1\\n    -shadows 0\\n    -captureSequenceNumber -1\\n    -width 1119\\n    -height 716\\n    -sceneRenderFilter 0\\n    $editorName;\\nmodelEditor -e -viewSelected 0 $editorName;\\nmodelEditor -e \\n    -pluginObjects \\\"gpuCacheDisplayFilter\\\" 1 \\n    $editorName\"\n"
		+ "\t\t\t\t$configName;\n\n            setNamedPanelLayout (localizedPanelLabel(\"Current Layout\"));\n        }\n\n        panelHistory -e -clear mainPanelHistory;\n        sceneUIReplacement -clear;\n\t}\n\n\ngrid -spacing 5 -size 12 -divisions 5 -displayAxes yes -displayGridLines yes -displayDivisionLines yes -displayPerspectiveLabels no -displayOrthographicLabels no -displayAxesBold yes -perspectiveLabelPosition axis -orthographicLabelPosition edge;\nviewManip -drawCompass 0 -compassAngle 0 -frontParameters \"\" -homeParameters \"\" -selectionLockParameters \"\";\n}\n");
	setAttr ".st" 3;
createNode script -n "sceneConfigurationScriptNode";
	rename -uid "D5B146A1-4486-0E01-F914-2E838B9BF51F";
	setAttr ".b" -type "string" "playbackOptions -min 1 -max 120 -ast 1 -aet 200 ";
	setAttr ".st" 6;
select -ne :time1;
	setAttr ".o" 1;
	setAttr ".unw" 1;
select -ne :hardwareRenderingGlobals;
	setAttr ".otfna" -type "stringArray" 22 "NURBS Curves" "NURBS Surfaces" "Polygons" "Subdiv Surface" "Particles" "Particle Instance" "Fluids" "Strokes" "Image Planes" "UI" "Lights" "Cameras" "Locators" "Joints" "IK Handles" "Deformers" "Motion Trails" "Components" "Hair Systems" "Follicles" "Misc. UI" "Ornaments"  ;
	setAttr ".otfva" -type "Int32Array" 22 0 1 1 1 1 1
		 1 1 1 0 0 0 0 0 0 0 0 0
		 0 0 0 0 ;
	setAttr ".fprt" yes;
select -ne :renderPartition;
	setAttr -s 2 ".st";
select -ne :renderGlobalsList1;
select -ne :defaultShaderList1;
	setAttr -s 4 ".s";
select -ne :postProcessList1;
	setAttr -s 2 ".p";
select -ne :defaultRenderingList1;
select -ne :initialShadingGroup;
	setAttr -s 2 ".dsm";
	setAttr ".ro" yes;
select -ne :initialParticleSE;
	setAttr ".ro" yes;
select -ne :defaultRenderGlobals;
	setAttr ".ren" -type "string" "arnold";
select -ne :defaultResolution;
	setAttr ".pa" 1;
select -ne :hardwareRenderGlobals;
	setAttr ".ctrs" 256;
	setAttr ".btrs" 512;
connectAttr "polyCube1.out" "pCube_auxShape.i";
relationship "link" ":lightLinker1" ":initialShadingGroup.message" ":defaultLightSet.message";
relationship "link" ":lightLinker1" ":initialParticleSE.message" ":defaultLightSet.message";
relationship "shadowLink" ":lightLinker1" ":initialShadingGroup.message" ":defaultLightSet.message";
relationship "shadowLink" ":lightLinker1" ":initialParticleSE.message" ":defaultLightSet.message";
connectAttr "layerManager.dli[0]" "defaultLayer.id";
connectAttr "renderLayerManager.rlmi[0]" "defaultRenderLayer.rlid";
connectAttr "defaultRenderLayer.msg" ":defaultRenderingList1.r" -na;
connectAttr "pCube_auxShape.iog" ":initialShadingGroup.dsm" -na;
connectAttr "pCubeShape1.iog" ":initialShadingGroup.dsm" -na;
// End of cube.ma
